<svg width="41" height="41" viewBox="0 0 41 41" fill="none" xmlns="http://www.w3.org/2000/svg">
<g clip-path="url(#clip0)">
<path d="M30.8994 13.5364H10.1007C9.63803 13.5364 9.263 13.9114 9.263 14.3741V31.8155C9.263 32.2782 9.63803 32.6532 10.1007 32.6532H13.8086V38.531C13.8086 39.8948 14.9142 41.0004 16.278 41.0004C17.6418 41.0004 18.7474 39.8949 18.7474 38.531V32.6532H22.2013V38.531C22.2013 39.8948 23.3068 41.0004 24.6707 41.0004C26.0345 41.0004 27.1401 39.8949 27.1401 38.531V32.6532H30.8995C31.3622 32.6532 31.7372 32.2782 31.7372 31.8155V14.3741C31.7371 13.9114 31.3621 13.5364 30.8994 13.5364Z" fill="#AAC148"/>
<path d="M5.74174 13.5319C4.37798 13.5319 3.27234 14.6374 3.27234 16.0013V26.031C3.27234 27.3948 4.37788 28.5004 5.74174 28.5004C7.10551 28.5004 8.21115 27.3949 8.21115 26.031V16.0013C8.21105 14.6375 7.10551 13.5319 5.74174 13.5319Z" fill="#AAC148"/>
<path d="M35.2584 13.5319C33.8946 13.5319 32.789 14.6374 32.789 16.0013V26.031C32.789 27.3948 33.8945 28.5004 35.2584 28.5004C36.6221 28.5004 37.7278 27.3949 37.7278 26.031V16.0013C37.7278 14.6375 36.6222 13.5319 35.2584 13.5319Z" fill="#AAC148"/>
<path d="M10.269 12.3129H30.682C31.2145 12.3129 31.6117 11.8223 31.5023 11.3011C30.8271 8.08296 28.7782 5.37091 25.998 3.8042L27.743 0.655594C27.8611 0.442425 27.7841 0.173781 27.5709 0.0556848C27.3573 -0.0627093 27.089 0.0145991 26.9709 0.227768L25.2127 3.40009C23.7726 2.73181 22.1677 2.35856 20.4755 2.35856C18.7833 2.35856 17.1783 2.73181 15.7383 3.40009L13.98 0.227669C13.8618 0.0144007 13.5932 -0.0625108 13.3801 0.0555855C13.1669 0.173682 13.0899 0.442326 13.208 0.655495L14.9531 3.8041C12.1728 5.37091 10.1239 8.08286 9.44869 11.3011C9.33922 11.8223 9.73639 12.3129 10.269 12.3129ZM26.5665 7.6205C26.5665 8.14469 26.1416 8.56974 25.6173 8.56974C25.0931 8.56974 24.668 8.14479 24.668 7.6205C24.668 7.09631 25.093 6.67126 25.6173 6.67126C26.1416 6.67126 26.5665 7.09631 26.5665 7.6205ZM15.3336 6.67126C15.8577 6.67126 16.2828 7.09621 16.2828 7.6205C16.2828 8.14469 15.8578 8.56974 15.3336 8.56974C14.8094 8.56974 14.3843 8.14479 14.3843 7.6205C14.3843 7.09631 14.8093 6.67126 15.3336 6.67126Z" fill="#AAC148"/>
</g>
<defs>
<clipPath id="clip0">
<rect width="41" height="41" fill="white"/>
</clipPath>
</defs>
</svg>
