<svg width="49" height="50" viewBox="0 0 49 50" fill="none" xmlns="http://www.w3.org/2000/svg">
<path d="M24.0542 8.29462C15.3163 8.29462 8.20756 15.5437 8.20756 24.4542C8.20756 33.3647 15.3163 40.6138 24.0542 40.6138C32.7921 40.6138 39.9008 33.3647 39.9008 24.4542C39.9008 15.5437 32.7921 8.29462 24.0542 8.29462ZM24.0542 39.0941C16.1381 39.0941 9.6978 32.5267 9.6978 24.4542C9.6978 16.3816 16.1381 9.81428 24.0542 9.81428C31.9703 9.81428 38.4106 16.3817 38.4106 24.4542C38.4106 32.5266 31.9703 39.0941 24.0542 39.0941Z" fill="#F1A33A" stroke="white" stroke-width="0.2"/>
<path d="M24.7994 23.8741V17.95C27.2339 18.1495 28.8728 19.3045 28.8728 20.351C28.8728 20.7706 29.2064 21.1109 29.618 21.1109C30.0294 21.1109 30.3631 20.7707 30.3631 20.351C30.3631 18.2936 27.9732 16.6511 24.7994 16.4268V15.5386C24.7994 15.119 24.4658 14.7787 24.0542 14.7787C23.6427 14.7787 23.309 15.1189 23.309 15.5386V16.4268C20.1352 16.6511 17.7453 18.2936 17.7453 20.351C17.7453 23.1072 20.3153 24.1827 23.309 25.0343V30.9584C20.8744 30.7588 19.2356 29.6039 19.2356 28.5574C19.2356 28.1378 18.902 27.7975 18.4904 27.7975C18.079 27.7975 17.7453 28.1377 17.7453 28.5574C17.7453 30.6148 20.1352 32.2573 23.309 32.4816V33.3698C23.309 33.7894 23.6426 34.1297 24.0542 34.1297C24.4657 34.1297 24.7994 33.7895 24.7994 33.3698V32.4816C27.9732 32.2573 30.3631 30.6148 30.3631 28.5574C30.363 25.8012 27.7931 24.7258 24.7994 23.8741ZM23.309 23.4516C20.2869 22.541 19.2356 21.714 19.2356 20.351C19.2356 19.3045 20.8744 18.1495 23.309 17.95V23.4516ZM24.7994 30.9584V25.4568C27.8215 26.3674 28.8728 27.1944 28.8728 28.5574C28.8728 29.6039 27.2339 30.7589 24.7994 30.9584Z" fill="#F1A33A" stroke="white" stroke-width="0.2"/>
<path d="M40.3176 7.8696C35.9736 3.4396 30.1977 1 24.0542 1C17.4404 1 11.2649 3.83787 6.89773 8.83333L7.30589 5.91988C7.36402 5.5044 7.08092 5.1196 6.67357 5.06023C6.26604 5.00132 5.88878 5.28964 5.83056 5.70495L5.03571 11.3786C4.99924 11.6392 5.09771 11.9006 5.2959 12.0695C5.43193 12.1852 5.60137 12.2459 5.77351 12.2459C5.85239 12.2459 5.932 12.2332 6.00908 12.2069L10.778 10.5859C11.1684 10.4531 11.3794 10.0229 11.2493 9.62473C11.119 9.22656 10.6972 9.01126 10.3068 9.1441L7.9108 9.95858C12.0005 5.21635 17.8192 2.51967 24.0542 2.51967C29.7996 2.51967 35.2012 4.80123 39.2639 8.9441C43.3266 13.0871 45.564 18.5952 45.564 24.4542C45.564 30.3132 43.3266 35.8213 39.2639 39.9643C35.2012 44.1072 29.7997 46.3887 24.0542 46.3887C23.6427 46.3887 23.309 46.7289 23.309 47.1486C23.309 47.5682 23.6426 47.9085 24.0542 47.9085C30.1977 47.9085 35.9736 45.4689 40.3176 41.0389C44.6617 36.6089 47.0542 30.719 47.0542 24.4542C47.0542 18.1894 44.6618 12.2994 40.3176 7.8696Z" fill="#F1A33A" stroke="white" stroke-width="0.4"/>
<path d="M20.9806 46.1664C20.7272 46.1294 20.472 46.0876 20.2222 46.0418C19.817 45.9673 19.4298 46.242 19.3569 46.6551C19.284 47.0681 19.5533 47.4632 19.9584 47.5375C20.2258 47.5865 20.4986 47.6314 20.7695 47.6709C20.8053 47.6761 20.8408 47.6787 20.876 47.6787C21.2407 47.6787 21.5595 47.4052 21.6127 47.0265C21.6708 46.6109 21.3879 46.226 20.9806 46.1664Z" fill="#F1A33A" stroke="white" stroke-width="0.2"/>
<path d="M17.3387 45.2987C16.8697 45.1417 16.3998 44.9656 15.942 44.7754C15.5611 44.6173 15.1262 44.8036 14.9707 45.1925C14.8155 45.5811 14.9986 46.0245 15.3797 46.1829C15.8694 46.3864 16.3721 46.5747 16.874 46.7427C16.9512 46.7686 17.0295 46.7808 17.1066 46.7808C17.4198 46.7808 17.7113 46.5778 17.8145 46.2578C17.9427 45.8589 17.7297 45.4297 17.3387 45.2987Z" fill="#F1A33A" stroke="white" stroke-width="0.2"/>
<path d="M3.03903 29.1533C2.93382 28.6615 2.84416 28.1594 2.77255 27.661C2.7128 27.2457 2.33474 26.9588 1.92739 27.0193C1.52013 27.0801 1.23838 27.466 1.29812 27.8812C1.37476 28.4142 1.47054 28.9512 1.58311 29.4771C1.65921 29.8326 1.96773 30.0752 2.31039 30.0752C2.36304 30.0752 2.4165 30.0695 2.46996 30.0576C2.87192 29.9681 3.1268 29.5633 3.03903 29.1533Z" fill="#F1A33A" stroke="white" stroke-width="0.2"/>
<path d="M2.78809 17.7008C2.39161 17.5897 1.9813 17.8278 1.87241 18.2326C1.73261 18.7518 1.60898 19.2831 1.50495 19.8115C1.42391 20.223 1.68526 20.6236 2.08875 20.7062C2.13834 20.7164 2.18758 20.7212 2.23627 20.7212C2.58388 20.7212 2.89501 20.4717 2.96598 20.1109C3.06329 19.6169 3.17891 19.1201 3.30955 18.6346C3.41835 18.2299 3.18502 17.8118 2.78809 17.7008Z" fill="#F1A33A" stroke="white" stroke-width="0.2"/>
<path d="M4.43753 33.4655C4.23449 33.0067 4.04474 32.5347 3.8735 32.0627C3.73073 31.6691 3.302 31.468 2.91612 31.6137C2.53015 31.7593 2.33303 32.1964 2.4758 32.59C2.6589 33.0948 2.86186 33.5997 3.0791 34.0907C3.20344 34.3718 3.47468 34.5381 3.75877 34.5381C3.86119 34.5381 3.96532 34.5164 4.06477 34.4707C4.43996 34.2981 4.60671 33.8481 4.43753 33.4655Z" fill="#F1A33A" stroke="white" stroke-width="0.2"/>
<path d="M1.88445 22.3148C1.47314 22.2894 1.12059 22.6088 1.09598 23.0278C1.0683 23.4997 1.0542 23.9796 1.0542 24.4548C1.0542 24.5196 1.05447 24.5843 1.05501 24.649C1.05824 25.0666 1.3912 25.4028 1.80008 25.4028C1.80197 25.4028 1.80404 25.4028 1.80601 25.4028C2.2175 25.3995 2.54848 25.0566 2.54534 24.637C2.54489 24.5759 2.54453 24.5148 2.54453 24.4542C2.54453 24.0098 2.55773 23.5606 2.5837 23.1189C2.60841 22.7 2.2953 22.34 1.88445 22.3148Z" fill="#F1A33A" stroke="white" stroke-width="0.2"/>
<path d="M13.2725 43.4385C12.8457 43.1859 12.4217 42.9146 12.012 42.6318C11.6711 42.3966 11.208 42.4876 10.9773 42.8351C10.7465 43.1827 10.8358 43.655 11.1766 43.8903C11.6145 44.1926 12.0681 44.4828 12.5244 44.7529C12.6421 44.8226 12.7706 44.8557 12.8978 44.8557C13.1547 44.8557 13.4047 44.72 13.5429 44.477C13.7496 44.1143 13.6285 43.6492 13.2725 43.4385Z" fill="#F1A33A" stroke="white" stroke-width="0.2"/>
<path d="M6.68138 37.3904C6.38984 36.9839 6.10854 36.5619 5.84503 36.1357C5.62563 35.7807 5.16554 35.6742 4.8173 35.8982C4.46916 36.122 4.36494 36.5912 4.58443 36.9462C4.86609 37.4018 5.16689 37.853 5.47856 38.2876C5.62455 38.4911 5.85105 38.5988 6.08051 38.5988C6.23324 38.5988 6.38723 38.5511 6.51984 38.4522C6.85209 38.2044 6.92441 37.7291 6.68138 37.3904Z" fill="#F1A33A" stroke="white" stroke-width="0.2"/>
<path d="M9.66968 40.7627C9.30248 40.4257 8.94203 40.0712 8.59838 39.7093C8.31214 39.4078 7.84055 39.4 7.54478 39.692C7.2491 39.9839 7.24147 40.4649 7.5278 40.7664C7.89508 41.1533 8.28033 41.5322 8.67277 41.8923C8.81526 42.023 8.99351 42.0874 9.17104 42.0874C9.3749 42.0874 9.57794 42.0025 9.72511 41.8359C10.0004 41.5238 9.9755 41.0434 9.66968 40.7627Z" fill="#F1A33A" stroke="white" stroke-width="0.2"/>
<path d="M4.2609 14.0414C3.88904 13.8614 3.44458 14.0228 3.26804 14.4017C3.15106 14.6527 3.03705 14.9093 2.92906 15.1643C2.7659 15.5495 2.93993 15.9968 3.31772 16.1631C3.41403 16.2055 3.51421 16.2256 3.61277 16.2256C3.90108 16.2256 4.17573 16.0539 4.2972 15.7669C4.39818 15.5285 4.50474 15.2885 4.61417 15.0538C4.79071 14.6747 4.63259 14.2216 4.2609 14.0414Z" fill="#F1A33A" stroke="white" stroke-width="0.2"/>
</svg>
