<svg width="52" height="52" viewBox="0 0 52 52" fill="none" xmlns="http://www.w3.org/2000/svg">
<path d="M9.20491 23.4146H7.16726V41.7538H9.20491V23.4146Z" fill="#F1A33A" stroke="white" stroke-width="0.5"/>
<path d="M13.2803 23.4146H11.2427V41.7538H13.2803V23.4146Z" fill="#F1A33A" stroke="white" stroke-width="0.5"/>
<path d="M17.3556 23.4146H15.318V41.7538H17.3556V23.4146Z" fill="#F1A33A" stroke="white" stroke-width="0.5"/>
<path d="M41.8079 12.2072H30.6006V14.2449H41.8079V12.2072Z" fill="#F1A33A" stroke="white" stroke-width="0.5"/>
<path d="M41.8079 17.3015H30.6006V19.3392H41.8079V17.3015Z" fill="#F1A33A" stroke="white" stroke-width="0.5"/>
<path d="M41.8079 22.3957H30.6006V24.4334H41.8079V22.3957Z" fill="#F1A33A" stroke="white" stroke-width="0.5"/>
<path d="M41.8079 27.4899H30.6006V29.5276H41.8079V27.4899Z" fill="#F1A33A" stroke="white" stroke-width="0.5"/>
<path d="M41.8079 32.5842H30.6006V34.6218H41.8079V32.5842Z" fill="#F1A33A" stroke="white" stroke-width="0.5"/>
<path d="M41.8079 37.6784H30.6006V39.716H41.8079V37.6784Z" fill="#F1A33A" stroke="white" stroke-width="0.5"/>
<path d="M18.3745 6.09418H16.3368V9.15071H18.3745V6.09418Z" fill="#F1A33A" stroke="white" stroke-width="0.5"/>
<path d="M18.3745 12.2072H16.3368V15.2638H18.3745V12.2072Z" fill="#F1A33A" stroke="white" stroke-width="0.5"/>
<path d="M22.4499 12.2072H20.4123V15.2638H22.4499V12.2072Z" fill="#F1A33A" stroke="white" stroke-width="0.5"/>
<path d="M22.4499 6.09418H20.4123V9.15071H22.4499V6.09418Z" fill="#F1A33A" stroke="white" stroke-width="0.5"/>
<path d="M26.5252 6.09418H24.4876V9.15071H26.5252V6.09418Z" fill="#F1A33A" stroke="white" stroke-width="0.5"/>
<path d="M26.5252 12.2072H24.4876V15.2638H26.5252V12.2072Z" fill="#F1A33A" stroke="white" stroke-width="0.5"/>
<path d="M26.5252 18.3203H24.4876V21.3768H26.5252V18.3203Z" fill="#F1A33A" stroke="white" stroke-width="0.5"/>
<path d="M26.5252 24.4334H24.4876V27.4899H26.5252V24.4334Z" fill="#F1A33A" stroke="white" stroke-width="0.5"/>
<path d="M26.5252 30.5464H24.4876V33.6029H26.5252V30.5464Z" fill="#F1A33A" stroke="white" stroke-width="0.5"/>
<path d="M26.5252 36.6595H24.4876V39.716H26.5252V36.6595Z" fill="#F1A33A" stroke="white" stroke-width="0.5"/>
<path d="M39.7702 42.7726H34.676C34.1133 42.7726 33.6572 43.2287 33.6572 43.7914V48.8856H35.6948V44.8102H38.7513V48.8856H40.7891V43.7914C40.7891 43.2287 40.3329 42.7726 39.7702 42.7726Z" fill="#F1A33A" stroke="white" stroke-width="0.5"/>
<path d="M16.3368 43.7914H8.18613C7.62345 43.7914 7.16726 44.2476 7.16726 44.8103V48.8857H9.20491V45.8292H15.318V48.8857H17.3556V44.8103C17.3557 44.2476 16.8995 43.7914 16.3368 43.7914Z" fill="#F1A33A" stroke="white" stroke-width="0.5"/>
<path d="M20.4123 19.3392H4.11073C3.54805 19.3392 3.09186 19.7954 3.09186 20.358V48.8857C3.09186 49.4483 3.54805 49.9045 4.11073 49.9045H20.4123C20.9749 49.9045 21.4311 49.4483 21.4311 48.8856V20.358C21.431 19.7954 20.9749 19.3392 20.4123 19.3392ZM19.3934 47.8668H5.12961V21.3768H19.3934V47.8668Z" fill="#F1A33A" stroke="white" stroke-width="0.3"/>
<path d="M46.9022 7.11307H30.6006C30.0379 7.11307 29.5817 7.56925 29.5817 8.13194V48.8857C29.5817 49.4484 30.0379 49.9046 30.6006 49.9046H46.9022C47.4648 49.9046 47.921 49.4484 47.921 48.8857V8.13194C47.921 7.56925 47.4648 7.11307 46.9022 7.11307ZM45.8833 47.8668H31.6195V9.15072H45.8833V47.8668Z" fill="#F1A33A" stroke="white" stroke-width="0.3"/>
<path d="M39.7702 1H12.2614C11.6988 1 11.2426 1.45619 11.2426 2.01888V17.3015H13.2803V3.03765H38.7514V5.07531H40.7891V2.01878C40.7891 1.45619 40.3329 1 39.7702 1Z" fill="#F1A33A" stroke="white" stroke-width="0.3"/>
<path d="M1.0542 47.8668V48.8857C1.0542 49.4483 1.51039 49.9045 2.07307 49.9045H48.9399C49.5026 49.9045 49.9588 49.4483 49.9588 48.8856V47.8667H1.0542V47.8668Z" fill="#F1A33A" stroke="white" stroke-width="0.5"/>
</svg>
