<svg width="59" height="50" viewBox="0 0 59 50" fill="none" xmlns="http://www.w3.org/2000/svg">
<g clip-path="url(#clip0)">
<path d="M33.0537 37.1958H23.215V42.3578H33.0537V37.1958Z" fill="#445EA0"/>
<path d="M25.6952 37.1958H23.215V42.3578H25.6952V37.1958Z" fill="#2E4C89"/>
<path d="M39.607 42.2329H15.945C15.5943 42.2329 15.3074 42.5204 15.3074 42.8717V46.0732C15.3074 46.4245 15.5944 46.712 15.945 46.712H39.607V42.2329Z" fill="#3D424E"/>
<path d="M17.7876 46.0731V42.8716C17.7876 42.5203 18.0746 42.2328 18.4254 42.2328H15.945C15.5943 42.2328 15.3074 42.5203 15.3074 42.8716V46.0731C15.3074 46.4244 15.5944 46.7119 15.945 46.7119H18.4252C18.0746 46.7119 17.7876 46.4244 17.7876 46.0731Z" fill="#1A2B63"/>
<path d="M55.6317 -0.309998H0.63775C0.287 -0.309998 0 -0.0225376 0 0.328774V36.6824C0 37.0339 0.287 37.3212 0.63775 37.3212H39.607V18.1951C39.607 17.712 39.9995 17.3187 40.482 17.3187H56.2695V0.328774C56.2695 -0.0225376 55.9825 -0.309998 55.6317 -0.309998Z" fill="#3D424E"/>
<path d="M2.7995 30.9337C2.7995 31.1446 2.97163 31.3169 3.18213 31.3169H39.607V18.1951C39.607 17.712 39.9995 17.3187 40.482 17.3187H53.47V5.95427H2.7995V30.9337Z" fill="white"/>
<path d="M5.27988 30.9337V5.95427H2.7995V30.9337C2.7995 31.1446 2.97163 31.3169 3.18213 31.3169H5.6625C5.452 31.3169 5.27988 31.1445 5.27988 30.9337Z" fill="#D9EAFC"/>
<path d="M28.135 36.0319C29.0859 36.0319 29.8568 35.2598 29.8568 34.3074C29.8568 33.355 29.0859 32.5829 28.135 32.5829C27.1841 32.5829 26.4132 33.355 26.4132 34.3074C26.4132 35.2598 27.1841 36.0319 28.135 36.0319Z" fill="#445EA0"/>
<path d="M39.607 20.2456H32.929C32.7228 20.2456 32.554 20.4147 32.554 20.6212V28.0881C32.554 28.2946 32.7228 28.4637 32.929 28.4637H39.607V20.2456Z" fill="#F1A33A"/>
<path d="M35.0342 28.0881V20.6212C35.0342 20.4147 35.203 20.2456 35.4092 20.2456H32.929C32.7228 20.2456 32.554 20.4147 32.554 20.6212V28.0881C32.554 28.2946 32.7228 28.4637 32.929 28.4637H35.4092C35.203 28.4637 35.0342 28.2946 35.0342 28.0881Z" fill="#282D3B"/>
<path d="M40.482 17.3187H46.3092V9.13287C46.3092 8.78857 46.028 8.50687 45.6842 8.50687H10.5852C10.2415 8.50687 9.96024 8.78857 9.96024 9.13287V17.4618C9.96024 17.8061 10.2415 18.0878 10.5852 18.0878H39.6144C39.6674 17.6551 40.036 17.3187 40.482 17.3187Z" fill="#F1A33A"/>
<path d="M12.4405 17.4617V9.13274C12.4405 8.78844 12.7217 8.50674 13.0655 8.50674H10.5852C10.2415 8.50674 9.96024 8.78844 9.96024 9.13274V17.4617C9.96024 17.806 10.2415 18.0877 10.5852 18.0877H13.0655C12.7217 18.0877 12.4405 17.806 12.4405 17.4617Z" fill="#282D3B"/>
<path d="M53.0874 2.94759H3.18213C2.97163 2.94759 2.7995 3.11999 2.7995 3.33095V6.07947H53.47V3.33095C53.47 3.11999 53.2978 2.94759 53.0874 2.94759Z" fill="#FFAF10"/>
<path d="M5.6625 2.94759H3.18213C2.97163 2.94759 2.7995 3.11999 2.7995 3.33095V6.07947H5.27975V3.33095C5.27988 3.11999 5.452 2.94759 5.6625 2.94759Z" fill="#FF9518"/>
<path d="M21.438 22.2279H10.9167C10.399 22.2279 9.97925 21.8076 9.97925 21.2889C9.97925 20.7702 10.399 20.3499 10.9167 20.3499H21.438C21.9557 20.3499 22.3755 20.7702 22.3755 21.2889C22.3755 21.8076 21.9557 22.2279 21.438 22.2279Z" fill="#282D3B"/>
<path d="M21.438 25.2937H10.9167C10.399 25.2937 9.97925 24.8734 9.97925 24.3547C9.97925 23.836 10.399 23.4157 10.9167 23.4157H21.438C21.9557 23.4157 22.3755 23.836 22.3755 24.3547C22.3755 24.8733 21.9557 25.2937 21.438 25.2937Z" fill="#282D3B"/>
<path d="M21.438 28.3595H10.9167C10.399 28.3595 9.97925 27.9392 9.97925 27.4205C9.97925 26.9018 10.399 26.4815 10.9167 26.4815H21.438C21.9557 26.4815 22.3755 26.9018 22.3755 27.4205C22.3755 27.9392 21.9557 28.3595 21.438 28.3595Z" fill="#282D3B"/>
<path d="M29.695 22.2279H24.2792C23.7615 22.2279 23.3417 21.8076 23.3417 21.2889C23.3417 20.7702 23.7615 20.3499 24.2792 20.3499H29.695C30.2127 20.3499 30.6325 20.7702 30.6325 21.2889C30.6325 21.8076 30.2127 22.2279 29.695 22.2279Z" fill="#282D3B"/>
<path d="M29.695 25.2937H24.2792C23.7615 25.2937 23.3417 24.8734 23.3417 24.3547C23.3417 23.836 23.7615 23.4157 24.2792 23.4157H29.695C30.2127 23.4157 30.6325 23.836 30.6325 24.3547C30.6325 24.8733 30.2127 25.2937 29.695 25.2937Z" fill="#F1A33A"/>
<path d="M29.695 28.3595H24.2792C23.7615 28.3595 23.3417 27.9392 23.3417 27.4205C23.3417 26.9018 23.7615 26.4815 24.2792 26.4815H29.695C30.2127 26.4815 30.6325 26.9018 30.6325 27.4205C30.6325 27.9392 30.2127 28.3595 29.695 28.3595Z" fill="#282D3B"/>
<path d="M57.518 17.1935C58.068 17.1935 58.518 17.6442 58.518 18.1951V48.4648C58.518 49.0157 58.068 49.4664 57.518 49.4664H35C34.45 49.4664 34 49.0157 34 48.4648V18.1951C34 17.6442 34.45 17.1935 35 17.1935H57.518Z" fill="#3D424E"/>
<path d="M36.7139 45.5335C36.3701 45.5335 36.0889 45.2518 36.0889 44.9075V19.7491C36.0889 19.4048 36.3701 19.1231 36.7139 19.1231H55.8043C56.148 19.1231 56.4293 19.4048 56.4293 19.7491V44.9075C56.4293 45.2518 56.148 45.5335 55.8043 45.5335H36.7139Z" fill="white"/>
<path d="M38.5691 44.9075V19.7491C38.5691 19.4048 38.8504 19.1231 39.1941 19.1231H36.7139C36.3701 19.1231 36.0889 19.4048 36.0889 19.7491V44.9075C36.0889 45.2518 36.3701 45.5335 36.7139 45.5335H39.1941C38.8504 45.5335 38.5691 45.2518 38.5691 44.9075Z" fill="#D9EAFC"/>
<path d="M45.0889 48.0375C44.7451 48.0375 44.4639 47.7558 44.4639 47.4115V47.168C44.4639 46.8237 44.7451 46.542 45.0889 46.542H47.4293C47.773 46.542 48.0543 46.8237 48.0543 47.168V47.4115C48.0543 47.7558 47.773 48.0375 47.4293 48.0375H45.0889Z" fill="#445EA0"/>
<path d="M56.4293 21.5386V19.7491C56.4293 19.4048 56.148 19.1231 55.8043 19.1231H36.7139C36.3701 19.1231 36.0889 19.4048 36.0889 19.7491V21.5386H56.4293Z" fill="#FFAF10"/>
<path d="M39.1941 19.1231H36.7139C36.3701 19.1231 36.0889 19.4048 36.0889 19.7491V21.5386H38.5691V19.7491C38.5691 19.4048 38.8504 19.1231 39.1941 19.1231Z" fill="#FF9518"/>
<path d="M50.5196 32.9894H41.9985C41.4808 32.9894 41.061 32.5691 41.061 32.0504C41.061 31.5317 41.4808 31.1114 41.9985 31.1114H50.5196C51.0374 31.1114 51.4571 31.5317 51.4571 32.0504C51.4571 32.569 51.0374 32.9894 50.5196 32.9894Z" fill="#5DC1D8"/>
<path d="M50.5196 35.8849H41.9985C41.4808 35.8849 41.061 35.4646 41.061 34.9459C41.061 34.4273 41.4808 34.0069 41.9985 34.0069H50.5196C51.0374 34.0069 51.4571 34.4273 51.4571 34.9459C51.4571 35.4646 51.0374 35.8849 50.5196 35.8849Z" fill="#5DC1D8"/>
<path d="M50.5196 38.7802H41.9985C41.4808 38.7802 41.061 38.3599 41.061 37.8412C41.061 37.3226 41.4808 36.9022 41.9985 36.9022H50.5196C51.0374 36.9022 51.4571 37.3226 51.4571 37.8412C51.4571 38.3599 51.0374 38.7802 50.5196 38.7802Z" fill="#5DC1D8"/>
<path d="M54.4875 28.8984C54.4875 29.2427 54.2063 29.5244 53.8625 29.5244H38.6556C38.3119 29.5244 38.0306 29.2427 38.0306 28.8984V23.7346C38.0306 23.3903 38.3119 23.1086 38.6556 23.1086H53.8625C54.2063 23.1086 54.4875 23.3903 54.4875 23.7346V28.8984Z" fill="#C3DDF4"/>
<path d="M40.5109 28.8984V23.7346C40.5109 23.3903 40.7921 23.1086 41.1359 23.1086H38.6556C38.3119 23.1086 38.0306 23.3903 38.0306 23.7346V28.8984C38.0306 29.2427 38.3119 29.5244 38.6556 29.5244H41.1359C40.7921 29.5244 40.5109 29.2427 40.5109 28.8984Z" fill="#AEC1ED"/>
<path d="M52.2376 43.5667C52.2376 43.911 51.9564 44.1927 51.6126 44.1927H40.9055C40.5618 44.1927 40.2805 43.911 40.2805 43.5667V41.4496C40.2805 41.1053 40.5618 40.8236 40.9055 40.8236H51.6126C51.9564 40.8236 52.2376 41.1053 52.2376 41.4496V43.5667Z" fill="#C3DDF4"/>
<path d="M42.7607 43.5667V41.4496C42.7607 41.1053 43.042 40.8236 43.3857 40.8236H40.9055C40.5618 40.8236 40.2805 41.1053 40.2805 41.4496V43.5667C40.2805 43.911 40.5618 44.1927 40.9055 44.1927H43.3857C43.042 44.1927 42.7607 43.911 42.7607 43.5667Z" fill="#AEC1ED"/>
</g>
<defs>
<clipPath id="clip0">
<rect width="59" height="50" fill="white"/>
</clipPath>
</defs>
</svg>
